<svg xmlns="http://www.w3.org/2000/svg" viewBox="0 0 64 64"><g fill="currentColor">
	<g>
		<path d="M61.852,19.831c0,0.321,0,0.594,0,0.864c0,10.315,0,20.63-0.002,30.945c0,1.474-0.325,1.798-1.809,1.798
			c-18.026,0-36.054,0-54.081,0c-1.489,0-1.812-0.32-1.812-1.792c0-10.316,0-20.631,0-30.945c0-0.273,0-0.545,0-0.87
			C23.376,19.831,42.565,19.831,61.852,19.831z M29.7,40.215c1.603,0,2.955,0.011,4.304-0.004c0.94-0.011,1.39-0.454,1.396-1.382
			c0.012-1.476,0.012-2.955,0-4.431c-0.009-0.969-0.454-1.39-1.453-1.395c-1.175-0.006-2.352,0.001-3.53-0.004
			c-0.174,0-0.35-0.042-0.699-0.085c1.089-1.071,2.059-2.007,3.007-2.968c0.658-0.669,0.66-1.298,0.014-1.958
			c-1.034-1.055-2.078-2.101-3.133-3.135c-0.688-0.674-1.309-0.654-2.013,0.04c-0.838,0.826-1.659,1.668-2.494,2.498
			c-0.125,0.125-0.282,0.214-0.516,0.388c0-1.516,0.012-2.893-0.005-4.269c-0.011-0.849-0.459-1.31-1.297-1.322
			c-1.527-0.02-3.055-0.018-4.582-0.002c-0.876,0.009-1.314,0.47-1.325,1.37c-0.014,1.201,0,2.403-0.007,3.604
			c0,0.178-0.04,0.356-0.081,0.688c-1.008-1.019-1.897-1.929-2.799-2.829c-0.874-0.875-1.426-0.878-2.285-0.025
			c-0.959,0.952-1.917,1.908-2.869,2.867c-0.799,0.805-0.806,1.383-0.024,2.178c0.774,0.785,1.559,1.557,2.334,2.34
			c0.158,0.159,0.296,0.338,0.544,0.622c-1.563,0-2.938-0.013-4.313,0.005c-0.849,0.009-1.311,0.458-1.32,1.296
			c-0.018,1.529-0.018,3.054,0,4.582c0.009,0.874,0.473,1.315,1.371,1.326c1.201,0.013,2.403,0,3.604,0.006
			c0.178,0.001,0.356,0.038,0.649,0.077c-1.03,1.032-1.968,1.965-2.896,2.909c-0.727,0.736-0.736,1.346-0.025,2.067
			c1.001,1.015,2.011,2.025,3.026,3.028c0.755,0.747,1.352,0.736,2.124-0.024c0.822-0.81,1.631-1.627,2.449-2.438
			c0.125-0.123,0.282-0.217,0.514-0.393c0,1.486-0.009,2.835,0.003,4.188c0.007,0.938,0.447,1.389,1.376,1.395
			c1.477,0.014,2.953,0.014,4.431,0.002c0.966-0.009,1.392-0.456,1.401-1.449c0.009-1.179,0-2.356,0.005-3.533
			c0-0.176,0.04-0.349,0.084-0.708c1.019,1.039,1.904,1.955,2.806,2.856c0.873,0.874,1.419,0.874,2.283,0.018
			c0.907-0.897,1.807-1.803,2.71-2.708c1.015-1.015,1.018-1.493,0.016-2.499C31.61,42.133,30.735,41.254,29.7,40.215z
			 M42.604,28.802c-0.846-0.568-1.37-1.253-1.208-2.359c0.099-0.687,0.02-1.399,0.018-2.1c-0.004-1.531-0.833-2.029-2.182-1.311
			c-4.599,2.445-5.158,8.758-1.052,12.031c0.585,0.465,0.846,0.973,0.84,1.719c-0.024,3.48-0.003,6.958-0.016,10.439
			c-0.002,0.908,0.226,1.729,0.792,2.444c0.94,1.184,2.527,1.662,3.91,1.19c1.476-0.504,2.497-1.885,2.509-3.487
			c0.02-3.304,0.041-6.606-0.012-9.91c-0.021-1.131,0.264-1.92,1.176-2.705c3.898-3.352,2.983-9.728-1.631-11.855
			c-1.086-0.501-1.908,0.001-1.928,1.19c-0.013,0.752-0.076,1.511,0.014,2.25C43.971,27.441,43.578,28.225,42.604,28.802z
			 M58.243,43.892c1.034-0.399,1.199-0.632,1.203-1.679c0.002-1,0.009-2-0.004-3.004c-0.011-0.938-0.447-1.377-1.377-1.395
			c-0.717-0.014-1.437-0.004-2.184-0.004c0-2.835,0-5.596,0-8.415c0.391,0,0.736,0.014,1.083-0.002
			c0.914-0.045,1.43-0.685,1.221-1.569c-0.366-1.556-0.763-3.106-1.162-4.654c-0.162-0.629-0.582-0.978-1.247-0.983
			c-0.752-0.005-1.502-0.001-2.254,0c-0.662,0-1.099,0.331-1.261,0.962c-0.412,1.571-0.813,3.144-1.184,4.726
			c-0.193,0.836,0.333,1.47,1.208,1.518c0.362,0.016,0.732,0,1.095,0c0,2.856,0,5.617,0,8.417c-0.725,0-1.397-0.005-2.074,0.002
			c-1.035,0.009-1.465,0.428-1.474,1.449c-0.009,0.949,0.033,1.902-0.011,2.854c-0.04,0.912,0.221,1.574,1.212,1.754
			c0,1.18-0.009,2.303,0,3.43c0.02,2.12,1.567,3.727,3.592,3.733c2.025,0.007,3.595-1.599,3.617-3.709
			C58.254,46.196,58.243,45.073,58.243,43.892z"/>
		<path d="M61.852,17.35c-19.271,0-38.439,0-57.689,0c0-1.264-0.036-2.508,0.017-3.747c0.025-0.584,0.453-0.933,1.037-1.019
			c0.246-0.038,0.5-0.017,0.75-0.017c18.025,0,36.049,0,54.073,0c1.488,0,1.811,0.32,1.813,1.794
			C61.852,15.333,61.852,16.306,61.852,17.35z M40.889,13.769c-5.659,0-11.318,0-16.979,0c-0.251,0-0.508-0.025-0.749,0.031
			c-0.604,0.143-0.967,0.537-0.969,1.168c0,0.631,0.365,1.026,0.967,1.17c0.238,0.058,0.496,0.032,0.747,0.032
			c11.271,0.002,22.54,0.002,33.809,0c0.226,0,0.456,0.022,0.675-0.02c0.645-0.121,1.041-0.517,1.041-1.181
			c0-0.664-0.394-1.065-1.038-1.183c-0.242-0.044-0.5-0.019-0.75-0.019C52.057,13.769,46.475,13.769,40.889,13.769z M8.352,16.17
			c0.175,0,0.351,0.007,0.526-0.001c0.768-0.04,1.273-0.516,1.275-1.198c0.002-0.681-0.501-1.163-1.27-1.201
			c-0.274-0.013-0.55-0.005-0.826-0.002c-0.948,0.009-1.497,0.447-1.499,1.197c-0.001,0.75,0.549,1.194,1.493,1.205
			C8.152,16.174,8.252,16.172,8.352,16.17z M13.179,13.769c-0.176,0-0.352-0.007-0.526,0.002c-0.771,0.036-1.277,0.502-1.286,1.185
			c-0.009,0.682,0.494,1.174,1.257,1.213c0.299,0.014,0.601,0.007,0.901,0.001c0.887-0.014,1.428-0.461,1.437-1.187
			c0.009-0.729-0.53-1.195-1.407-1.215C13.428,13.765,13.304,13.769,13.179,13.769z M18.046,13.781c0-0.003,0-0.007,0-0.01
			c-0.226,0-0.453-0.014-0.676,0.001c-0.714,0.055-1.194,0.542-1.194,1.198c0,0.654,0.483,1.154,1.197,1.194
			c0.449,0.025,0.907,0.046,1.349-0.017c0.647-0.094,1.039-0.515,1.037-1.179c-0.002-0.664-0.394-1.062-1.039-1.181
			C18.502,13.749,18.271,13.781,18.046,13.781z"/>
	</g>
	<path d="M11.685,29.077c0.613-0.61,1.157-1.149,1.755-1.743c0.798,0.812,1.646,1.654,2.473,2.521
		c0.542,0.568,1.106,0.65,1.823,0.325c2.043-0.925,2.076-0.387,2.043-3.177c-0.009-0.771-0.002-1.544-0.002-2.366
		c0.809,0,1.567,0,2.406,0c0,1.212,0.02,2.406-0.007,3.6c-0.019,0.779,0.356,1.152,1.024,1.545c1.595,0.938,2.743,0.532,3.78-0.847
		c0.447-0.595,1.029-1.089,1.602-1.683c0.542,0.629,1.039,1.209,1.634,1.904c-0.71,0.685-1.552,1.489-2.38,2.308
		c-0.777,0.765-0.796,1.019-0.385,1.988c0.853,2.004,0.471,1.979,3.082,1.958c0.793-0.007,1.59-0.002,2.428-0.002
		c0,0.802,0,1.544,0,2.403c-1.122,0-2.262,0-3.402,0c-1.195,0.002-1.262,0.219-1.841,1.247c-0.831,1.469-0.411,2.458,0.792,3.4
		c0.646,0.506,1.197,1.133,1.832,1.743c-0.616,0.572-1.177,1.098-1.864,1.735c-0.752-0.793-1.546-1.648-2.362-2.483
		c-0.747-0.765-1.019-0.785-1.991-0.366c-1.975,0.849-1.966,0.458-1.942,3.015c0.003,0.82-0.002,1.64-0.002,2.49
		c-0.815,0-1.554,0-2.405,0c0-1.164,0.001-2.328,0-3.494c-0.002-1.077-0.26-1.204-1.19-1.734c-1.477-0.844-2.504-0.445-3.464,0.787
		c-0.503,0.646-1.122,1.204-1.713,1.828c-0.593-0.645-1.11-1.212-1.709-1.859c0.755-0.733,1.584-1.521,2.4-2.326
		c0.799-0.791,0.826-1.057,0.395-2.059c-0.838-1.948-0.451-1.948-3.027-1.924c-0.8,0.008-1.598,0-2.455,0c0-0.788,0-1.549,0-2.403
		c1.16,0,2.326,0.002,3.493-0.002c1.041,0,1.19-0.264,1.696-1.138c0.881-1.528,0.446-2.596-0.832-3.585
		C12.746,30.197,12.216,29.59,11.685,29.077z M25.785,36.594c-0.005-2.653-2.184-4.809-4.842-4.793
		c-2.654,0.019-4.791,2.19-4.773,4.858c0.019,2.613,2.182,4.758,4.802,4.757C23.633,41.416,25.789,39.253,25.785,36.594z"/>
	<path d="M38.95,26.345c0.033,0.164,0.068,0.237,0.055,0.301c-0.506,2.555,1.624,3.54,2.999,4.948
		c0.432,0.441,1.051,0.249,1.491-0.179c0.793-0.767,1.591-1.531,2.328-2.348c0.226-0.252,0.34-0.661,0.381-1.013
		c0.063-0.532,0.019-1.078,0.019-1.68c1.478,1.327,1.878,4.686-0.533,6.725c-0.476,0.398-1.015,0.805-1.285,1.333
		c-0.331,0.64-0.55,1.412-0.561,2.133c-0.056,3.429-0.026,6.86-0.028,10.291c0,0.25,0.025,0.511-0.038,0.746
		c-0.166,0.613-0.552,1.017-1.225,1.017c-0.614,0-1.104-0.498-1.128-1.179c-0.032-0.95-0.013-1.903-0.013-2.854
		c0-2.579-0.037-5.157,0.014-7.737c0.03-1.555-0.537-2.728-1.763-3.688C37.501,31.467,37.184,28.492,38.95,26.345z"/>
	<path d="M53.439,43.851c0.831,0,1.569,0,2.385,0c0,1.262,0.036,2.501-0.017,3.735c-0.026,0.64-0.637,1.08-1.248,1.037
		c-0.622-0.042-1.098-0.513-1.113-1.192C53.42,46.264,53.439,45.095,53.439,43.851z"/>
	<path d="M52.265,41.417c0-0.438,0-0.781,0-1.202c0.821,0,1.613,0,2.405,0c0.769,0,1.538,0,2.339,0c0,0.414,0,0.755,0,1.202
		c-0.783,0-1.574,0-2.365,0C53.873,41.417,53.104,41.417,52.265,41.417z"/>
	<path d="M55.487,26.958c-0.603,0-1.12,0-1.697,0c0.174-0.696,0.322-1.353,0.511-1.995c0.04-0.146,0.232-0.249,0.352-0.372
		c0.109,0.108,0.275,0.198,0.313,0.329C55.153,25.582,55.308,26.252,55.487,26.958z"/>
	<path d="M23.38,36.598c0.005,1.309-1.068,2.398-2.373,2.412c-1.304,0.017-2.405-1.053-2.431-2.354
		c-0.026-1.346,1.065-2.453,2.409-2.45C22.291,34.21,23.373,35.293,23.38,36.598z"/>
</g>
</svg>
